{
  "pools": [
    {
      "conditions": [
        {
          "condition": "random_chance_with_looting",
          "chance": 0.005,
          "looting_multiplier": 0.001
        }
      ],
      "rolls": 1,
      "entries": [{
          "type": "item",
          "weight": 3,
          "name": "minecraft:skull",
          "functions": [
            {
              "function": "set_nbt",
              "tag": "{display:{Name:\"§rBee\"},SkullOwner:{Id:\"5c924f65-d173-546d-8422-5f30c0a47f77\",Properties:{textures:[{Value:\"eyJ0ZXh0dXJlcyI6eyJTS0lOIjp7InVybCI6Imh0dHA6Ly90ZXh0dXJlcy5taW5lY3JhZnQubmV0L3RleHR1cmUvZmJhZGNjZDI4YjI3MmVjZDU4MDEyMDk4YTE3MzI1Yjk0ZmRhOTY2ZmZlN2M0M2Q2ZTBmOWRlZWYwMjZiODU5MyJ9fX0=\"}]},Name:\"Bee\"}}"
            },
            {
              "function": "set_data",
              "data": 3
            }
          ]
        },
        {
          "type": "item",
          "weight": 2,
          "name": "minecraft:skull",
          "functions": [
            {
              "function": "set_nbt",
              "tag": "{display:{Name:\"§rAngry Bee\"},SkullOwner:{Id:\"72bbc2ef-8cb9-56df-ac3e-3989045d5c83\",Properties:{textures:[{Value:\"eyJ0ZXh0dXJlcyI6eyJTS0lOIjp7InVybCI6Imh0dHA6Ly90ZXh0dXJlcy5taW5lY3JhZnQubmV0L3RleHR1cmUvZmRlMWY1Nzc2NjY4M2E5MjQ2NGNlNWVmOGJkZDBmM2M5MjgyZmU3NmJiYWUxNzg5NDA2ZTBhMmRjYmRmODRhYiJ9fX0=\"}]},Name:\"Angry Bee\"}}"
            },
            {
              "function": "set_data",
              "data": 3
            }
          ]
        }
      ]
    },
    {
      "conditions": [
        {
          "condition": "random_chance_with_looting",
          "chance": 0.3,
          "looting_multiplier": 0.1
        }
      ],
      "rolls": 1,
      "entries": [
        {
          "type": "item",
          "name": "minecraft:potion",
          "functions": [
            {
              "function": "set_nbt",
              "tag": "{display:{Name:\"§rManuka Honey\"},CustomPotionColor:16101432,HideFlags:32}"
            }
          ]
        }
      ]
    }
  ]
}
